[
  {
    "id": 14535,
    "user_id": 3,
    "user_netid": "joe",
    "sensitive_data": null,
    "hostname": "vcm-test-546.example.com",
    "comments": null,
    "sn_request_id": null,
    "step_id": 44,
    "created_at": "2021-09-17T13:44:41.000-04:00",
    "updated_at": "2021-09-17T13:49:15.000-04:00",
    "status": "running",
    "type": "purge",
    "vm_id": 3889,
    "scheduled_start": "2021-09-17T13:48:08.000-04:00",
    "date_requested": "2021-09-17T13:44:41.000-04:00",
    "vm_request_info_id": null,
    "old_vm_request_info_id": null,
    "date_started": "2021-09-17T13:49:03.000-04:00",
    "approver_id": null,
    "approver_netid": null,
    "api_user_netid": null,
    "skip_finalize": false
  }
]
